[
  {
    "ParameterKey": "RhcosAmi",
    "ParameterValue": "ami-0ceea534b63224411"
  },
  {
    "ParameterKey": "MasterSecurityGroupId",
    "ParameterValue": "sg-05ba24d015f6c3697"
  },
  {
    "ParameterKey": "ClusterSecurityGroupId",
    "ParameterValue": "sg-0a9f5666cf3dc3754"
  },
  {
    "ParameterKey": "BootstrapIp",
    "ParameterValue": "10.0.0.9"
  },
  {
    "ParameterKey": "PrivateSubnet0Id",
    "ParameterValue": "subnet-01c7db663aa58abc2"
  },
  {
    "ParameterKey": "BootstrapIgnitionLocation",
    "ParameterValue": "http://bastion.disconnected.lab:8080/bootstrap.ign"
  }
]
