[
  {
    "ParameterKey": "RhcosAmi",
    "ParameterValue": "ami-0ceea534b63224411"
  },
  {
    "ParameterKey": "MasterSecurityGroupId",
    "ParameterValue": "sg-05ba24d015f6c3697"
  },
  {
    "ParameterKey": "ClusterSecurityGroupId",
    "ParameterValue": "sg-0a9f5666cf3dc3754"
  },
  {
    "ParameterKey": "Master0IP",
    "ParameterValue": "10.0.0.10"
  },
  {
    "ParameterKey": "PrivateSubnet0Id",
    "ParameterValue": "subnet-01c7db663aa58abc2"
  },
  {
    "ParameterKey": "Master1IP",
    "ParameterValue": "10.0.1.10"
  },
  {
    "ParameterKey": "PrivateSubnet1Id",
    "ParameterValue": "subnet-0e868771379f22f4b"
  },
  {
    "ParameterKey": "Master2IP",
    "ParameterValue": "10.0.2.10"
  },
  {
    "ParameterKey": "PrivateSubnet2Id",
    "ParameterValue": "subnet-0ec027703be5de7e3"
  },
  {
    "ParameterKey": "MasterIgnitionLocation",
    "ParameterValue": "http://bastion.disconnected.lab:8080/master.ign"
  }
]
